{
  "albums": [
    {
      "album_type": "album",
      "external_urls": {
        "spotify": "https://open.spotify.com/album/4O0zifDfVvsBV4C4gwyrom"
      },
      "href": "https://api.spotify.com/v1/albums/4O0zifDfVvsBV4C4gwyrom",
      "id": "4O0zifDfVvsBV4C4gwyrom",
      "images": [
        {
          "height": 640,
          "url": "https://d3rt1990lpmkn.cloudfront.net/original/ea3945d0e8081860745be94b506f435a667f73ff",
          "width": 640
        },
        {
          "height": 300,
          "url": "https://d3rt1990lpmkn.cloudfront.net/original/517b0f68260b2151bbf452d4f225ad447baed2b3",
          "width": 300
        },
        {
          "height": 64,
          "url": "https://d3rt1990lpmkn.cloudfront.net/original/7744f859322399016c9ffca75f4eb0fe32028ed6",
          "width": 64
        }
      ],
      "name": "The Best Of Keane",
      "type": "album",
      "uri": "spotify:album:4O0zifDfVvsBV4C4gwyrom"
    },
    {
      "album_type": "album",
      "external_urls": {
        "spotify": "https://open.spotify.com/album/6VYlEGQqJBMJR4vksRpM1d"
      },
      "href": "https://api.spotify.com/v1/albums/6VYlEGQqJBMJR4vksRpM1d",
      "id": "6VYlEGQqJBMJR4vksRpM1d",
      "images": [
        {
          "height": 640,
          "url": "https://d3rt1990lpmkn.cloudfront.net/original/ea3945d0e8081860745be94b506f435a667f73ff",
          "width": 640
        },
        {
          "height": 300,
          "url": "https://d3rt1990lpmkn.cloudfront.net/original/517b0f68260b2151bbf452d4f225ad447baed2b3",
          "width": 300
        },
        {
          "height": 64,
          "url": "https://d3rt1990lpmkn.cloudfront.net/original/7744f859322399016c9ffca75f4eb0fe32028ed6",
          "width": 64
        }
      ],
      "name": "The Best Of Keane (Deluxe)",
      "type": "album",
      "uri": "spotify:album:6VYlEGQqJBMJR4vksRpM1d"
    },
    {
      "album_type": "album",
      "external_urls": {
        "spotify": "https://open.spotify.com/album/2hYe61Nd2oOoM6RYCwIma1"
      },
      "href": "https://api.spotify.com/v1/albums/2hYe61Nd2oOoM6RYCwIma1",
      "id": "2hYe61Nd2oOoM6RYCwIma1",
      "images": [
        {
          "height": 640,
          "url": "https://d3rt1990lpmkn.cloudfront.net/original/89b92c6b59131776c0cd8e5df46301ffcf36ed69",
          "width": 640
        },
        {
          "height": 300,
          "url": "https://d3rt1990lpmkn.cloudfront.net/original/eb6f0b2594d81f8d9dced193f3e9a3bc4318aedc",
          "width": 300
        },
        {
          "height": 64,
          "url": "https://d3rt1990lpmkn.cloudfront.net/original/21e1ebcd7ebd3b679d9d5084bba1e163638b103a",
          "width": 64
        }
      ],
      "name": "The Best Of Keane",
      "type": "album",
      "uri": "spotify:album:2hYe61Nd2oOoM6RYCwIma1"
    },
    {
      "album_type": "album",
      "external_urls": {
        "spotify": "https://open.spotify.com/album/41MnTivkwTO3UUJ8DrqEJJ"
      },
      "href": "https://api.spotify.com/v1/albums/41MnTivkwTO3UUJ8DrqEJJ",
      "id": "41MnTivkwTO3UUJ8DrqEJJ",
      "images": [
        {
          "height": 640,
          "url": "https://d3rt1990lpmkn.cloudfront.net/original/89b92c6b59131776c0cd8e5df46301ffcf36ed69",
          "width": 640
        },
        {
          "height": 300,
          "url": "https://d3rt1990lpmkn.cloudfront.net/original/eb6f0b2594d81f8d9dced193f3e9a3bc4318aedc",
          "width": 300
        },
        {
          "height": 64,
          "url": "https://d3rt1990lpmkn.cloudfront.net/original/21e1ebcd7ebd3b679d9d5084bba1e163638b103a",
          "width": 64
        }
      ],
      "name": "The Best Of Keane (Deluxe)",
      "type": "album",
      "uri": "spotify:album:41MnTivkwTO3UUJ8DrqEJJ"
    },
    {
      "album_type": "album",
      "external_urls": {
        "spotify": "https://open.spotify.com/album/39m9OUoFXzytHpYLzFjRf5"
      },
      "href": "https://api.spotify.com/v1/albums/39m9OUoFXzytHpYLzFjRf5",
      "id": "39m9OUoFXzytHpYLzFjRf5",
      "images": [
        {
          "height": 640,
          "url": "https://d3rt1990lpmkn.cloudfront.net/original/0970d54a64e3d4c624037fd4143576b7c81a2668",
          "width": 640
        },
        {
          "height": 300,
          "url": "https://d3rt1990lpmkn.cloudfront.net/original/95aa5e21f90ecdb191f74d55893849773de45524",
          "width": 300
        },
        {
          "height": 64,
          "url": "https://d3rt1990lpmkn.cloudfront.net/original/a0c1f117b1dfb6de0c901e0cd4af69213fb48e01",
          "width": 64
        }
      ],
      "name": "Strangeland",
      "type": "album",
      "uri": "spotify:album:39m9OUoFXzytHpYLzFjRf5"
    },
    {
      "album_type": "album",
      "external_urls": {
        "spotify": "https://open.spotify.com/album/3nwyEcUG2j9CXV7qY1BhVr"
      },
      "href": "https://api.spotify.com/v1/albums/3nwyEcUG2j9CXV7qY1BhVr",
      "id": "3nwyEcUG2j9CXV7qY1BhVr",
      "images": [
        {
          "height": 640,
          "url": "https://d3rt1990lpmkn.cloudfront.net/original/0970d54a64e3d4c624037fd4143576b7c81a2668",
          "width": 640
        },
        {
          "height": 300,
          "url": "https://d3rt1990lpmkn.cloudfront.net/original/95aa5e21f90ecdb191f74d55893849773de45524",
          "width": 300
        },
        {
          "height": 64,
          "url": "https://d3rt1990lpmkn.cloudfront.net/original/a0c1f117b1dfb6de0c901e0cd4af69213fb48e01",
          "width": 64
        }
      ],
      "name": "Strangeland",
      "type": "album",
      "uri": "spotify:album:3nwyEcUG2j9CXV7qY1BhVr"
    },
    {
      "album_type": "album",
      "external_urls": {
        "spotify": "https://open.spotify.com/album/7CrzFBSIGuZA07hjRM6HxH"
      },
      "href": "https://api.spotify.com/v1/albums/7CrzFBSIGuZA07hjRM6HxH",
      "id": "7CrzFBSIGuZA07hjRM6HxH",
      "images": [
        {
          "height": 640,
          "url": "https://d3rt1990lpmkn.cloudfront.net/original/0970d54a64e3d4c624037fd4143576b7c81a2668",
          "width": 640
        },
        {
          "height": 300,
          "url": "https://d3rt1990lpmkn.cloudfront.net/original/95aa5e21f90ecdb191f74d55893849773de45524",
          "width": 300
        },
        {
          "height": 64,
          "url": "https://d3rt1990lpmkn.cloudfront.net/original/a0c1f117b1dfb6de0c901e0cd4af69213fb48e01",
          "width": 64
        }
      ],
      "name": "Strangeland",
      "type": "album",
      "uri": "spotify:album:7CrzFBSIGuZA07hjRM6HxH"
    },
    {
      "album_type": "album",
      "external_urls": {
        "spotify": "https://open.spotify.com/album/4qUtCLdz557eQYYxawtP4t"
      },
      "href": "https://api.spotify.com/v1/albums/4qUtCLdz557eQYYxawtP4t",
      "id": "4qUtCLdz557eQYYxawtP4t",
      "images": [
        {
          "height": 640,
          "url": "https://d3rt1990lpmkn.cloudfront.net/original/be368b4f8b3dbcb7bcb39c0707fd33447c1ec398",
          "width": 640
        },
        {
          "height": 300,
          "url": "https://d3rt1990lpmkn.cloudfront.net/original/24f4e188d0bedc8e1d2a8e3f242aa9c3ec4b6729",
          "width": 300
        },
        {
          "height": 64,
          "url": "https://d3rt1990lpmkn.cloudfront.net/original/b31365a528a6a8e1e8b4c8a2d5d1d4b48b672122",
          "width": 64
        }
      ],
      "name": "Strangeland",
      "type": "album",
      "uri": "spotify:album:4qUtCLdz557eQYYxawtP4t"
    },
    {
      "album_type": "album",
      "external_urls": {
        "spotify": "https://open.spotify.com/album/6BVarRQrQOPL0DCXsZ46TL"
      },
      "href": "https://api.spotify.com/v1/albums/6BVarRQrQOPL0DCXsZ46TL",
      "id": "6BVarRQrQOPL0DCXsZ46TL",
      "images": [
        {
          "height": 640,
          "url": "https://d3rt1990lpmkn.cloudfront.net/original/be368b4f8b3dbcb7bcb39c0707fd33447c1ec398",
          "width": 640
        },
        {
          "height": 300,
          "url": "https://d3rt1990lpmkn.cloudfront.net/original/24f4e188d0bedc8e1d2a8e3f242aa9c3ec4b6729",
          "width": 300
        },
        {
          "height": 64,
          "url": "https://d3rt1990lpmkn.cloudfront.net/original/b31365a528a6a8e1e8b4c8a2d5d1d4b48b672122",
          "width": 64
        }
      ],
      "name": "Strangeland",
      "type": "album",
      "uri": "spotify:album:6BVarRQrQOPL0DCXsZ46TL"
    },
    {
      "album_type": "album",
      "external_urls": {
        "spotify": "https://open.spotify.com/album/4XBpnxTQfN8z8jKjhF5oFq"
      },
      "href": "https://api.spotify.com/v1/albums/4XBpnxTQfN8z8jKjhF5oFq",
      "id": "4XBpnxTQfN8z8jKjhF5oFq",
      "images": [
        {
          "height": 640,
          "url": "https://d3rt1990lpmkn.cloudfront.net/original/be368b4f8b3dbcb7bcb39c0707fd33447c1ec398",
          "width": 640
        },
        {
          "height": 300,
          "url": "https://d3rt1990lpmkn.cloudfront.net/original/24f4e188d0bedc8e1d2a8e3f242aa9c3ec4b6729",
          "width": 300
        },
        {
          "height": 64,
          "url": "https://d3rt1990lpmkn.cloudfront.net/original/b31365a528a6a8e1e8b4c8a2d5d1d4b48b672122",
          "width": 64
        }
      ],
      "name": "Strangeland",
      "type": "album",
      "uri": "spotify:album:4XBpnxTQfN8z8jKjhF5oFq"
    },
    {
      "album_type": "album",
      "external_urls": {
        "spotify": "https://open.spotify.com/album/6JWc4iAiJ9FjyK0B59ABb4"
      },
      "href": "https://api.spotify.com/v1/albums/6JWc4iAiJ9FjyK0B59ABb4",
      "id": "6JWc4iAiJ9FjyK0B59ABb4",
      "images": [
        {
          "height": 640,
          "url": "https://d3rt1990lpmkn.cloudfront.net/original/be368b4f8b3dbcb7bcb39c0707fd33447c1ec398",
          "width": 640
        },
        {
          "height": 300,
          "url": "https://d3rt1990lpmkn.cloudfront.net/original/24f4e188d0bedc8e1d2a8e3f242aa9c3ec4b6729",
          "width": 300
        },
        {
          "height": 64,
          "url": "https://d3rt1990lpmkn.cloudfront.net/original/b31365a528a6a8e1e8b4c8a2d5d1d4b48b672122",
          "width": 64
        }
      ],
      "name": "Strangeland",
      "type": "album",
      "uri": "spotify:album:6JWc4iAiJ9FjyK0B59ABb4"
    },
    {
      "album_type": "album",
      "external_urls": {
        "spotify": "https://open.spotify.com/album/7dCGn3G5SZ04Rmpjmb6psF"
      },
      "href": "https://api.spotify.com/v1/albums/7dCGn3G5SZ04Rmpjmb6psF",
      "id": "7dCGn3G5SZ04Rmpjmb6psF",
      "images": [
        {
          "height": 640,
          "url": "https://d3rt1990lpmkn.cloudfront.net/original/64b52953944be0cde549ab7fbff3876e7d75e816",
          "width": 640
        },
        {
          "height": 300,
          "url": "https://d3rt1990lpmkn.cloudfront.net/original/381f0b843836ba218c0a41276a7aa67f2be62b68",
          "width": 300
        },
        {
          "height": 64,
          "url": "https://d3rt1990lpmkn.cloudfront.net/original/3272046087ac83f93902713db500851af9da46c6",
          "width": 64
        }
      ],
      "name": "Strangeland",
      "type": "album",
      "uri": "spotify:album:7dCGn3G5SZ04Rmpjmb6psF"
    },
    {
      "album_type": "album",
      "external_urls": {
        "spotify": "https://open.spotify.com/album/1aJyFgmJg70udsfRGdWE4p"
      },
      "href": "https://api.spotify.com/v1/albums/1aJyFgmJg70udsfRGdWE4p",
      "id": "1aJyFgmJg70udsfRGdWE4p",
      "images": [
        {
          "height": 640,
          "url": "https://d3rt1990lpmkn.cloudfront.net/original/e43cc2041855d877bd22d2e4162f0d8dec0f8664",
          "width": 640
        },
        {
          "height": 300,
          "url": "https://d3rt1990lpmkn.cloudfront.net/original/0c1335acfbc4ea7aa713850eb5e3bb672b2128c7",
          "width": 300
        },
        {
          "height": 64,
          "url": "https://d3rt1990lpmkn.cloudfront.net/original/c7e6e166c6f1e98605628d65c13585acdc0e063f",
          "width": 64
        }
      ],
      "name": "Night Train",
      "type": "album",
      "uri": "spotify:album:1aJyFgmJg70udsfRGdWE4p"
    },
    {
      "album_type": "album",
      "external_urls": {
        "spotify": "https://open.spotify.com/album/7CobamY962LAhT55n950rS"
      },
      "href": "https://api.spotify.com/v1/albums/7CobamY962LAhT55n950rS",
      "id": "7CobamY962LAhT55n950rS",
      "images": [
        {
          "height": 640,
          "url": "https://d3rt1990lpmkn.cloudfront.net/original/b206527b1aaa1f1f64c5268275d20820ce007fd4",
          "width": 640
        },
        {
          "height": 300,
          "url": "https://d3rt1990lpmkn.cloudfront.net/original/de19fdf061c2c0b8af19793f2fb685a947b2c4a0",
          "width": 300
        },
        {
          "height": 64,
          "url": "https://d3rt1990lpmkn.cloudfront.net/original/b454f6a5ec67e621139c808ff3c9fcb65c6554f6",
          "width": 64
        }
      ],
      "name": "Night Train",
      "type": "album",
      "uri": "spotify:album:7CobamY962LAhT55n950rS"
    },
    {
      "album_type": "album",
      "external_urls": {
        "spotify": "https://open.spotify.com/album/2xNm7nsZTZwm16GRhlmx4s"
      },
      "href": "https://api.spotify.com/v1/albums/2xNm7nsZTZwm16GRhlmx4s",
      "id": "2xNm7nsZTZwm16GRhlmx4s",
      "images": [
        {
          "height": 640,
          "url": "https://d3rt1990lpmkn.cloudfront.net/original/4dd9e70cd4b2c5d6d3c09614647038f5c337bb75",
          "width": 640
        },
        {
          "height": 300,
          "url": "https://d3rt1990lpmkn.cloudfront.net/original/adba0fe932dfcf515a010780e85caf833e8c63bd",
          "width": 300
        },
        {
          "height": 64,
          "url": "https://d3rt1990lpmkn.cloudfront.net/original/930a938a4cdd4ea63af46598befe5f525eb5628d",
          "width": 64
        }
      ],
      "name": "Night Train",
      "type": "album",
      "uri": "spotify:album:2xNm7nsZTZwm16GRhlmx4s"
    },
    {
      "album_type": "album",
      "external_urls": {
        "spotify": "https://open.spotify.com/album/5H8xVeaZGI6z0SeLVJNC3w"
      },
      "href": "https://api.spotify.com/v1/albums/5H8xVeaZGI6z0SeLVJNC3w",
      "id": "5H8xVeaZGI6z0SeLVJNC3w",
      "images": [
        {
          "height": 640,
          "url": "https://d3rt1990lpmkn.cloudfront.net/original/4dd9e70cd4b2c5d6d3c09614647038f5c337bb75",
          "width": 640
        },
        {
          "height": 300,
          "url": "https://d3rt1990lpmkn.cloudfront.net/original/adba0fe932dfcf515a010780e85caf833e8c63bd",
          "width": 300
        },
        {
          "height": 64,
          "url": "https://d3rt1990lpmkn.cloudfront.net/original/930a938a4cdd4ea63af46598befe5f525eb5628d",
          "width": 64
        }
      ],
      "name": "Night Train",
      "type": "album",
      "uri": "spotify:album:5H8xVeaZGI6z0SeLVJNC3w"
    },
    {
      "album_type": "album",
      "external_urls": {
        "spotify": "https://open.spotify.com/album/6UXCm6bOO4gFlDQZV5yL37"
      },
      "href": "https://api.spotify.com/v1/albums/6UXCm6bOO4gFlDQZV5yL37",
      "id": "6UXCm6bOO4gFlDQZV5yL37",
      "images": [
        {
          "height": 640,
          "url": "https://d3rt1990lpmkn.cloudfront.net/original/4dd9e70cd4b2c5d6d3c09614647038f5c337bb75",
          "width": 640
        },
        {
          "height": 300,
          "url": "https://d3rt1990lpmkn.cloudfront.net/original/adba0fe932dfcf515a010780e85caf833e8c63bd",
          "width": 300
        },
        {
          "height": 64,
          "url": "https://d3rt1990lpmkn.cloudfront.net/original/930a938a4cdd4ea63af46598befe5f525eb5628d",
          "width": 64
        }
      ],
      "name": "Night Train (Spotify Premium Exclusive)",
      "type": "album",
      "uri": "spotify:album:6UXCm6bOO4gFlDQZV5yL37"
    },
    {
      "album_type": "album",
      "external_urls": {
        "spotify": "https://open.spotify.com/album/1Ld9wAb9zqn0rH5qwtkT5E"
      },
      "href": "https://api.spotify.com/v1/albums/1Ld9wAb9zqn0rH5qwtkT5E",
      "id": "1Ld9wAb9zqn0rH5qwtkT5E",
      "images": [
        {
          "height": 640,
          "url": "https://d3rt1990lpmkn.cloudfront.net/original/1a48856047b2292a0c8684b4f43dc088a638cff1",
          "width": 640
        },
        {
          "height": 300,
          "url": "https://d3rt1990lpmkn.cloudfront.net/original/62a8972b5e526b36450ff7148a26466917934411",
          "width": 300
        },
        {
          "height": 64,
          "url": "https://d3rt1990lpmkn.cloudfront.net/original/b1fbac74665fcf8dc0216eaf3808c526a21191ec",
          "width": 64
        }
      ],
      "name": "iTunes Festival: London 2010 - EP",
      "type": "album",
      "uri": "spotify:album:1Ld9wAb9zqn0rH5qwtkT5E"
    },
    {
      "album_type": "album",
      "external_urls": {
        "spotify": "https://open.spotify.com/album/52HCcPFEcctf4kZR8kBhbq"
      },
      "href": "https://api.spotify.com/v1/albums/52HCcPFEcctf4kZR8kBhbq",
      "id": "52HCcPFEcctf4kZR8kBhbq",
      "images": [
        {
          "height": 640,
          "url": "https://d3rt1990lpmkn.cloudfront.net/original/16da66c14e86d3953ae51752a80b018a0950c711",
          "width": 640
        },
        {
          "height": 300,
          "url": "https://d3rt1990lpmkn.cloudfront.net/original/b58eb83d8a7b6c3420334ed8814b660b1e8786cb",
          "width": 300
        },
        {
          "height": 64,
          "url": "https://d3rt1990lpmkn.cloudfront.net/original/760e9bf049df582a36cd33391855f903902b50ef",
          "width": 64
        }
      ],
      "name": "iTunes Festival: London 2010 - EP",
      "type": "album",
      "uri": "spotify:album:52HCcPFEcctf4kZR8kBhbq"
    },
    {
      "album_type": "album",
      "external_urls": {
        "spotify": "https://open.spotify.com/album/5Pcr80UxFWgztvmAZKC8sn"
      },
      "href": "https://api.spotify.com/v1/albums/5Pcr80UxFWgztvmAZKC8sn",
      "id": "5Pcr80UxFWgztvmAZKC8sn",
      "images": [
        {
          "height": 640,
          "url": "https://d3rt1990lpmkn.cloudfront.net/original/81f01dbfadec2190b337bd78ab79d6c4f3ccf1b2",
          "width": 640
        },
        {
          "height": 300,
          "url": "https://d3rt1990lpmkn.cloudfront.net/original/b858c2079956bc98c2024c5580d0450762cb2a9e",
          "width": 300
        },
        {
          "height": 64,
          "url": "https://d3rt1990lpmkn.cloudfront.net/original/224839246f74ab79c03d8ab5ce56b3aa489c9e6c",
          "width": 64
        }
      ],
      "name": "Live Recordings: European Tour 2008",
      "type": "album",
      "uri": "spotify:album:5Pcr80UxFWgztvmAZKC8sn"
    }
  ],
  "paging": {
    "limit": 20,
    "next": "https://api.spotify.com/v1/artists/53A0W3U0s8diEn9RhXQhVz/albums?offset=20&limit=20",
    "offset": 0,
    "previous": null,
    "total": 144
  }
}